<svg width="169" height="168" viewBox="0 0 169 168" fill="none" xmlns="http://www.w3.org/2000/svg">
<path d="M168.202 83.9903C168.202 130.392 130.548 168 84.0912 168C37.6341 168 0 130.392 0 83.9903C0 37.589 37.6537 0 84.0912 0C130.529 0 168.202 37.6085 168.202 83.9903Z" fill="#0E7ABF"/>
<path d="M127.523 49.8326C126.703 48.9163 125.336 48.6044 124.185 49.0528C123.99 49.1308 123.794 49.2087 123.619 49.3062C118.856 51.8213 113.586 52.4061 107.476 51.0804C102.967 50.1056 98.731 48.3704 94.222 46.5377L91.6453 45.4849C87.0972 43.6523 82.3734 41.7806 77.2397 40.9228C71.618 39.987 66.4063 40.4939 61.8777 42.346V40.4159C61.8777 38.7587 60.5308 37.4135 58.8716 37.4135C57.2125 37.4135 55.8656 38.7587 55.8656 40.4159V125.342H52.4106C50.7514 125.342 49.4045 126.687 49.4045 128.344C49.4045 130.002 50.7514 131.347 52.4106 131.347H65.3912C67.0504 131.347 68.3973 130.002 68.3973 128.344C68.3973 126.687 67.0504 125.342 65.3912 125.342H61.8777V91.3403C63.7516 90.3265 65.3522 89.7026 66.6991 89.4687C74.3118 88.0844 80.7728 90.2875 88.4441 93.3095L90.9621 94.3038C94.3781 95.6685 97.9307 97.0723 101.483 98.32C105.251 99.6458 108.998 100.328 112.61 100.328C113.039 100.328 113.488 100.328 113.917 100.309C118.329 100.114 122.487 98.749 126.312 96.2729C127.659 95.3956 128.089 93.6019 127.249 92.2372L116.982 74.9634L127.991 53.2055C128.557 52.0942 128.323 50.7879 127.503 49.8716M110.872 73.7351C110.404 74.6515 110.443 75.7433 110.97 76.6206L120.515 92.6661C118.348 93.6799 116.065 94.2258 113.644 94.3428C110.345 94.4987 107.027 93.9528 103.494 92.7051C100.039 91.4768 96.5448 90.1121 93.1679 88.7668L90.6303 87.7725C84.1302 85.2185 78.0596 83.0934 71.3448 83.0934C69.4904 83.0934 67.597 83.2494 65.6255 83.6198C64.4543 83.8342 63.2245 84.2047 61.8972 84.7311V49.0528C65.8402 46.7132 70.6616 45.9723 76.2442 46.9082C80.7338 47.649 84.9305 49.3257 89.4786 51.1584L91.9381 52.1527C96.4667 54.0048 101.151 55.896 106.168 57.0073C110.833 58.0211 115.147 58.1186 119.207 57.2802L110.853 73.7546L110.872 73.7351Z" fill="#80E083"/>
</svg>
