<svg width="63" height="76" viewBox="0 0 63 76" fill="none" xmlns="http://www.w3.org/2000/svg">
<g filter="url(#filter0_d_24_137)">
<path d="M7.92039 17.8312C6.94526 19.7059 5.5431 19.644 4.79573 17.6888L4.58929 17.1505C3.84193 15.1953 3.79922 11.9903 4.49676 10.0228L7.4008 1.81226C8.09834 -0.155299 10.0557 -0.588426 11.7497 0.847024L12.1199 1.15639C13.8139 2.59184 14.4118 5.29569 13.4366 7.17662L7.9133 17.825L7.92039 17.8312Z" fill="#0E7ABF"/>
<path d="M9.20874 47.0969C7.48625 48.5076 6.07697 48.0621 6.08409 46.1131C6.08409 44.1641 7.27274 41.2314 8.70341 39.5979L39.2812 4.70779C40.719 3.06816 43.4664 2.70931 45.3953 3.90346L51.4027 7.62818C53.3316 8.82232 53.4953 10.9508 51.7728 12.3615L9.21586 47.1031L9.20874 47.0969Z" fill="#0E7ABF"/>
<path d="M29.7789 67.546C27.4657 67.9915 25.3161 66.7293 24.9958 64.7494C24.6755 62.7694 26.2343 60.5606 28.455 59.8491L55.3601 51.2116C57.5808 50.5 59.1681 51.589 58.8905 53.6308L58.2285 58.4816C57.9509 60.5235 55.8298 62.5591 53.5237 62.9984L29.786 67.546H29.7789Z" fill="#0E7ABF"/>
</g>
<defs>
<filter id="filter0_d_24_137" x="0" y="0" width="62.922" height="75.6355" filterUnits="userSpaceOnUse" color-interpolation-filters="sRGB">
<feFlood flood-opacity="0" result="BackgroundImageFix"/>
<feColorMatrix in="SourceAlpha" type="matrix" values="0 0 0 0 0 0 0 0 0 0 0 0 0 0 0 0 0 0 127 0" result="hardAlpha"/>
<feOffset dy="4"/>
<feGaussianBlur stdDeviation="2"/>
<feComposite in2="hardAlpha" operator="out"/>
<feColorMatrix type="matrix" values="0 0 0 0 0 0 0 0 0 0 0 0 0 0 0 0 0 0 0.25 0"/>
<feBlend mode="normal" in2="BackgroundImageFix" result="effect1_dropShadow_24_137"/>
<feBlend mode="normal" in="SourceGraphic" in2="effect1_dropShadow_24_137" result="shape"/>
</filter>
</defs>
</svg>
