<svg width="982" height="25" viewBox="0 0 982 25" fill="none" xmlns="http://www.w3.org/2000/svg">
<g clip-path="url(#clip0_19_17244)">
<path d="M981.28 21.7145C654.258 10.6111 327.269 32.8179 0.280026 21.7145C0.280027 15.5412 0.280028 9.37644 0.280029 3.20308C327.269 14.3065 654.258 -7.90036 981.28 3.20305L981.28 21.7145Z" fill="#47BA83"/>
</g>
<defs>
<clipPath id="clip0_19_17244">
<rect width="981" height="24.9179" fill="white" transform="translate(0.280029)"/>
</clipPath>
</defs>
</svg>
